4. Combine external data sources and COVIDcast data • covidcast
…
Analysis alongside other signals

Now that our data is loaded as a covidcast_signal object, we can use it alongside other signals from the API. For example, let’s examine how new COVID hospitalizations correlate with outpatient doctor visits with deaths during October 2020, where we use death data as reported by the API.

deaths <- covidcast_signal("indicator-combination", "deaths_incidence_prop",
                           start_day = "2020-10-01",
                           end_day = "2020-10-31",
                           geo_type = "state")

covidcast_cor(deaths, hospitalized, by = "time_value")

## # A tibble: 31 × 2
##    time_value   value
##    <date>       <dbl>
##  1 2020-10-01  0.138 
##  2 2020-10-02  0.246 
##  3 2020-10-03  0.0697
##  4 2020-10-04  0.210 
##  5 2020-10-05 -0.0573
##  6 2020-10-06  0.134 
##  7 2020-10-07  0.0552
##  8 2020-10-08  0.0561
##  9 2020-10-09  0.0344
## 10 2020-10-10  0.0905
## # ℹ 21 more rows
…
