2. Estimate derivatives of signals • modeltools
…
Estimating derivatives via linear regression

The function for estimating derivatives is called estimate_deriv(), and (aside from a covidcast_signal data frame) takes two primary arguments: method, indicating the method to use for derivative estimation; and n indicating the trailing sample size (number of days) to use in training the given method. Here we use method = "lin", the default, which uses the slope from a simple linear regression, and n = 14, also the default.

library(modeltools)
library(dplyr)

case_rates <- estimate_deriv(case_rates, method = "lin", n = 14)

case_rates %>%
  arrange(geo_value) %>%
  select(geo_value, time_value, value, deriv)

## # A tibble: 672 x 4
## # Rowwise: 
##    geo_value time_value value   deriv
##    <chr>     <date>     <dbl>   <dbl>
##  1 ca        2020-06-01  6.70 NA     
##  2 ca        2020-06-02  6.39 -0.312 
##  3 ca        2020-06-03  6.50 -0.102 
##  4 ca        2020-06-04  6.86  0.0593
##  5 ca        2020-06-05  7.11  0.129 
##  6 ca        2020-06-06  6.81  0.0874
##  7 ca        2020-06-07  6.74  0.0561
##  8 ca        2020-06-08  6.75  0.0393
##  9 ca        2020-06-09  6.99  0.0449
## 10 ca        2020-06-10  7.19  0.0561
## # … with 662 more rows
…
case_rates <- case_rates %>%
  rowwise() %>%
  mutate(p_value = quiet(
    tryCatch(ls.print(deriv_obj)$coef.table[[1]][2,"Pr(>|t|)"],
             error = function(e) NA)))

case_rates %>%
  arrange(geo_value) %>%
  select(geo_value, time_value, value, deriv, deriv_obj, p_value)

## # A tibble: 672 x 6
## # Rowwise: 
##    geo_value time_value value   deriv deriv_obj         p_value
##    <chr>     <date>     <dbl>   <dbl> <list>              <dbl>
##  1 ca        2020-06-01  6.70 NA      <lgl [1]>         NA     
##  2 ca        2020-06-02  6.39 -0.312  <named list [4]> NaN     
##  3 ca        2020-06-03  6.50 -0.102  <named list [4]>   0.555 
##  4 ca        2020-06-04  6.86  0.0593 <named list [4]>   0.638 
##  5 ca        2020-06-05  7.11  0.129  <named list [4]>   0.180 
##  6 ca        2020-06-06  6.81  0.0874 <named list [4]>   0.182 
##  7 ca        2020-06-07  6.74  0.0561 <named list [4]>   0.243 
##  8 ca        2020-06-08  6.75  0.0393 <named list [4]>   0.278 
##  9 ca        2020-06-09  6.99  0.0449 <named list [4]>   0.125 
## 10 ca        2020-06-10  7.19  0.0561 <named list [4]>   0.0314
## # … with 662 more rows
…
