1. Compute percentage change over time • modeltools
…
Percentage change

The pct_change() function operates on a covidcast_signal data frame, and takes an argument n, indicating the size of the local window (in days) to use. For example, if n = 10, then to compute the percentage change on November 10, we use 100 * (B - A) / A, where A is the sum of the values between November 6 and November 10, and A is the sum of the values between November 1 and November 5. The default is n = 14, giving the percentage change between back-to-back weeks.

library(modeltools)
library(dplyr)

case_rates <- pct_change(case_rates, n = 14)

case_rates %>%
  arrange(geo_value) %>%
  select(geo_value, time_value, value, pct_change) %>%
  print(n = 21)

## # A tibble: 672 x 4
##    geo_value time_value value pct_change
##    <chr>     <date>     <dbl>      <dbl>
##  1 ca        2020-06-01  6.70      NA   
##  2 ca        2020-06-02  6.39      NA   
##  3 ca        2020-06-03  6.50      NA   
##  4 ca        2020-06-04  6.86      NA   
##  5 ca        2020-06-05  7.11      NA   
##  6 ca        2020-06-06  6.81      NA   
##  7 ca        2020-06-07  6.74      NA   
##  8 ca        2020-06-08  6.75      NA   
##  9 ca        2020-06-09  6.99      NA   
## 10 ca        2020-06-10  7.19      NA   
## 11 ca        2020-06-11  7.32      NA   
## 12 ca        2020-06-12  7.48      NA   
## 13 ca        2020-06-13  7.72      NA   
## 14 ca        2020-06-14  7.82       8.84
## 15 ca        2020-06-15  7.88      11.1 
## 16 ca        2020-06-16  8.02      11.9 
## 17 ca        2020-06-17  8.53      13.0 
## 18 ca        2020-06-18  8.62      14.6 
## 19 ca        2020-06-19  8.56      16.0 
## 20 ca        2020-06-20  8.72      15.8 
## 21 ca        2020-06-21  8.94      15.6 
## # … with 651 more rows
…
