1. Estimate derivatives of signals
…
TODO, blah try linear regression

library(modeltools)
library(dplyr)

case_rates <- estimate_deriv(case_rates, method = "linear-reg", n = 14)

case_rates %>% 
  arrange(geo_value) %>% 
  filter(time_value <= "2020-06-14") %>%
  select(geo_value, time_value, value, deriv) 

## # A tibble: 714 x 4
##    geo_value time_value value   deriv
##    <chr>     <date>     <dbl>   <dbl>
##  1 ak        2020-06-01  1.13 NA     
##  2 ak        2020-06-02  1.48  0.352 
##  3 ak        2020-06-03  1.82  0.342 
##  4 ak        2020-06-04  1.72  0.209 
##  5 ak        2020-06-05  1.84  0.164 
##  6 ak        2020-06-06  1.99  0.150 
##  7 ak        2020-06-07  1.64  0.0914
##  8 ak        2020-06-08  1.87  0.0788
##  9 ak        2020-06-09  1.68  0.0547
## 10 ak        2020-06-10  1.72  0.0415
## # … with 704 more rows
…
TODO, blah try smoothing splines two ways, plot them

case_rates <- estimate_deriv(case_rates, method = "smooth-spline", n = 28,
                             new_col = "deriv_ss_df", params = list(df = 8))

case_rates <- estimate_deriv(case_rates, method = "smooth-spline", n = 28,
                             new_col = "deriv_ss_cv", params = list(cv = TRUE))

case_rates %>% 
  arrange(geo_value) %>% 
  filter(time_value <= "2020-06-14") %>%
  select(geo_value, time_value, value, deriv, deriv_ss_df, deriv_ss_cv) 

## # A tibble: 714 x 6
##    geo_value time_value value   deriv deriv_ss_df deriv_ss_cv
##    <chr>     <date>     <dbl>   <dbl>       <dbl>       <dbl>
##  1 ak        2020-06-01  1.13 NA          NA         NA      
##  2 ak        2020-06-02  1.48  0.352      NA         NA      
##  3 ak        2020-06-03  1.82  0.342      NA         NA      
##  4 ak        2020-06-04  1.72  0.209      -0.149     -0.211  
##  5 ak        2020-06-05  1.84  0.164       0.0462     0.0563 
##  6 ak        2020-06-06  1.99  0.150       0.151      0.143  
##  7 ak        2020-06-07  1.64  0.0914     -0.484     -0.484  
##  8 ak        2020-06-08  1.87  0.0788      0.426     -0.00652
##  9 ak        2020-06-09  1.68  0.0547     -0.264     -0.0638 
## 10 ak        2020-06-10  1.72  0.0415      0.0360    -0.0297 
## # … with 704 more rows
…
