1. Slide a function over time
…
Trailing average

TODO, blah try trailing average

library(modeltools)
library(dplyr)

signals[[1]] <- slide_by_geo(signals[[1]], slide_fun = ~ Mean(.x$value), n = 7, 
                             new_col = "7dav")

signals[[1]] %>% 
  arrange(geo_value) %>% 
  select(geo_value, time_value, value, `7dav`)

## # A tibble: 672 x 4
##    geo_value time_value value `7dav`
##    <chr>     <date>     <dbl>  <dbl>
##  1 ca        2020-06-01  6.34   6.34
##  2 ca        2020-06-02  5.86   6.10
##  3 ca        2020-06-03  5.88   6.03
##  4 ca        2020-06-04  7.97   6.51
##  5 ca        2020-06-05  8.40   6.89
##  6 ca        2020-06-06  6.71   6.86
##  7 ca        2020-06-07  6.03   6.74
##  8 ca        2020-06-08  6.42   6.75
##  9 ca        2020-06-09  7.54   6.99
## 10 ca        2020-06-10  7.27   7.19
## # … with 662 more rows
…
