Introduction to evalcast
…
## Downloading 
## https://raw.githubusercontent.com/reichlab/covid19-forecast-hub/master/data-processed/CMU-TimeSeries/2020-07-20-CMU-TimeSeries.csv
## Downloading 
## https://raw.githubusercontent.com/reichlab/covid19-forecast-hub/master/data-processed/CMU-TimeSeries/2020-07-27-CMU-TimeSeries.csv
## Downloading 
## https://raw.githubusercontent.com/reichlab/covid19-forecast-hub/master/data-processed/CMU-TimeSeries/2020-08-02-CMU-TimeSeries.csv
## Downloading 
## https://raw.githubusercontent.com/reichlab/covid19-forecast-hub/master/data-processed/CMU-TimeSeries/2020-08-10-CMU-TimeSeries.csv

This creates a list of 4 predictions cards, one for each (forecast date, ahead) pairs. Let's look at a predictions card:

predictions_cards_cmu[[1]]

## # A tibble: 52 x 2
##    location forecast_distribution
##  * <chr>    <list>               
##  1 01       <tibble [23  2]>    
##  2 02       <tibble [23  2]>    
##  3 04       <tibble [23  2]>    
##  4 05       <tibble [23  2]>    
##  5 06       <tibble [23  2]>    
##  6 08       <tibble [23  2]>    
##  7 09       <tibble [23  2]>    
##  8 10       <tibble [23  2]>    
##  9 11       <tibble [23  2]>    
## 10 12       <tibble [23  2]>    
## #  with 42 more rows

Forecasts are probabilistic, meaning that rather than providing a single predicted value, a distribution of values is provided. For example, the baseline forecaster predicts the following distribution in California on ...

pc <- predictions_cards_cmu[[1]]
pc[pc$location == "06", ]$forecast_distribution[[1]]

## # A tibble: 23 x 2
##    probs quantiles
##    <dbl>     <dbl>
##  1 0.01        404
##  2 0.025       450
##  3 0.05        495
##  4 0.1         537
##  5 0.15        566
##  6 0.2         580
##  7 0.25        600
##  8 0.3         614
##  9 0.35        634
## 10 0.4         649
## #  with 13 more rows
…
## ahead = 3

## Downloading deaths_incidence_num from covidcast for period from 2020-08-02 to 2020-08-08.

## Downloading deaths_incidence_num from covidcast for period from 2020-08-09 to 2020-08-15.

## Downloading deaths_incidence_num from covidcast for period from 2020-08-16 to 2020-08-22.

## Downloading deaths_incidence_num from covidcast for period from 2020-08-23 to 2020-08-29.

Let's look at the scorecard for ahead = 4, i.e., for 4-epiweek ahead forecasts.

scorecards[[1]]

## # A tibble: 208 x 9
##    location forecast_date start      end        actual forecast_distri     wis
##  * <chr>    <date>        <date>     <date>      <int> <list>             <dbl>
##  1 01       2020-07-20    2020-08-02 2020-08-08    152 <tibble [23  2  70.7  
##  2 01       2020-07-27    2020-08-09 2020-08-15    141 <tibble [23  2 107.   
##  3 01       2020-08-02    2020-08-16 2020-08-22    115 <tibble [23  2  92.7  
##  4 01       2020-08-10    2020-08-23 2020-08-29    141 <tibble [23  2  35.2  
##  5 02       2020-07-20    2020-08-02 2020-08-08      2 <tibble [23  2   0.670
##  6 02       2020-07-27    2020-08-09 2020-08-15      2 <tibble [23  2   0.122
##  7 02       2020-08-02    2020-08-16 2020-08-22      3 <tibble [23  2   0.675
##  8 02       2020-08-10    2020-08-23 2020-08-29      6 <tibble [23  2   2.30 
##  9 04       2020-07-20    2020-08-02 2020-08-08    390 <tibble [23  2 388.   
## 10 04       2020-07-27    2020-08-09 2020-08-15    355 <tibble [23  2 457.   
## #  with 198 more rows, and 2 more variables: ae <dbl>, coverage_80 <lgl>
…
