Introduction to evalcast • evalcast
…
get_predictions() and get_covidhub_predictions() return a long data.frame with 2496 rows, (one for each (forecast date, ahead, geo_value, quantile) combination).

predictions_cards_cmu
#> # A tibble: 2,472 x 10
#>    ahead geo_value quantile value forecaster forecast_date data_source signal
#>    <int> <chr>        <dbl> <dbl> <chr>      <date>        <chr>       <chr> 
#>  1     3 al           0.01      0 CMU-TimeS… 2020-07-20    jhu-csse    death…
#>  2     3 al           0.025     0 CMU-TimeS… 2020-07-20    jhu-csse    death…
#>  3     3 al           0.05     14 CMU-TimeS… 2020-07-20    jhu-csse    death…
#>  4     3 al           0.1      46 CMU-TimeS… 2020-07-20    jhu-csse    death…
#>  5     3 al           0.15     62 CMU-TimeS… 2020-07-20    jhu-csse    death…
#>  6     3 al           0.2      75 CMU-TimeS… 2020-07-20    jhu-csse    death…
#>  7     3 al           0.25     85 CMU-TimeS… 2020-07-20    jhu-csse    death…
#>  8     3 al           0.3      98 CMU-TimeS… 2020-07-20    jhu-csse    death…
#>  9     3 al           0.35    108 CMU-TimeS… 2020-07-20    jhu-csse    death…
#> 10     3 al           0.4     116 CMU-TimeS… 2020-07-20    jhu-csse    death…
#> # … with 2,462 more rows, and 2 more variables: target_end_date <date>,
#> #   incidence_period <chr>
…
