Introduction to evalcast • evalcast
…
# Make new predictions using baseline_forecaster
predictions_cards <- get_predictions(baseline_forecaster,
                                     name_of_forecaster = "baseline",
                                     signals = signals,
                                     forecast_dates = forecast_dates_july,
                                     incidence_period = "epiweek",
                                     ahead = 3,
                                     geo_type = "state")

baseline_forecaster created a list of 2 predictions cards, (one for each (forecast date, ahead) pair). Let’s look at a predictions card:

predictions_cards[[1]]

## # A tibble: 52 x 2
##    location forecast_distribution
##  * <chr>    <list>               
##  1 01       <tibble [23 × 2]>    
##  2 02       <tibble [23 × 2]>    
##  3 04       <tibble [23 × 2]>    
##  4 05       <tibble [23 × 2]>    
##  5 06       <tibble [23 × 2]>    
##  6 08       <tibble [23 × 2]>    
##  7 09       <tibble [23 × 2]>    
##  8 10       <tibble [23 × 2]>    
##  9 11       <tibble [23 × 2]>    
## 10 12       <tibble [23 × 2]>    
## # … with 42 more rows

Forecasts are probabilistic, meaning that rather than predicting a single value, a distribution of values is generated. For example, the baseline forecaster would have predicted the following distribution in California for 1 week(s) after 2020-07-20

pc <- predictions_cards_cmu[[1]]
ca_fips = covidcast::name_to_fips("California")
ca_code = substr(ca_fips, 0, 2) # States are identified by a 2 character code
pc[pc$location == ca_code, ]$forecast_distribution[[1]]

## # A tibble: 23 x 2
##    probs quantiles
##    <dbl>     <dbl>
##  1 0.01        404
##  2 0.025       450
##  3 0.05        495
##  4 0.1         537
##  5 0.15        566
##  6 0.2         580
##  7 0.25        600
##  8 0.3         614
##  9 0.35        634
## 10 0.4         649
## # … with 13 more rows
…
Let’s look at the baseline_forecaster’s scorecard for 3-epiweek ahead forecasts.

scorecards[[1]]

## # A tibble: 104 x 9
##    location forecast_date start      end        actual forecast_distri…     wis
##  * <chr>    <date>        <date>     <date>      <int> <list>             <dbl>
##  1 01       2020-07-20    2020-08-02 2020-08-08    152 <tibble [23 × 2…  23.2  
##  2 01       2020-07-27    2020-08-09 2020-08-15    141 <tibble [23 × 2…  28.0  
##  3 02       2020-07-20    2020-08-02 2020-08-08      2 <tibble [23 × 2…   0.534
##  4 02       2020-07-27    2020-08-09 2020-08-15      2 <tibble [23 × 2…   0.123
##  5 04       2020-07-20    2020-08-02 2020-08-08    390 <tibble [23 × 2… 108.   
##  6 04       2020-07-27    2020-08-09 2020-08-15    355 <tibble [23 × 2… 119.   
##  7 05       2020-07-20    2020-08-02 2020-08-08     77 <tibble [23 × 2…  34.2  
##  8 05       2020-07-27    2020-08-09 2020-08-15     65 <tibble [23 × 2…  13.5  
##  9 06       2020-07-20    2020-08-02 2020-08-08    962 <tibble [23 × 2… 165.   
## 10 06       2020-07-27    2020-08-09 2020-08-15    911 <tibble [23 × 2…  99.4  
## # … with 94 more rows, and 2 more variables: ae <dbl>, coverage_80 <lgl>
…
